<svg width="35" height="35" viewBox="0 0 35 35" version="1.1" xmlns="http://www.w3.org/2000/svg">
  <g>
    <path d="M35,26.25 C35,28.6653767 34.1455164,30.7275305 32.4365234,32.4365234 C30.7275305,34.1455164 28.6653767,35 26.25,35 C24.2751637,35 22.4978378,34.3923672 20.9179687,33.1770833 C19.748258,33.4201401 18.6089465,33.5416667 17.5,33.5416667 C15.3276801,33.5416667 13.2503354,33.1201214 11.2679036,32.2770182 C9.28547186,31.4339151 7.57650457,30.2946035 6.14095052,28.8590495 C4.70539647,27.4234954 3.56608494,25.7145281 2.72298177,23.7320964 C1.8798786,21.7496646 1.45833333,19.6723199 1.45833333,17.5 C1.45833333,16.3910535 1.5798599,15.251742 1.82291667,14.0820312 C0.607632812,12.5021622 0,10.7248363 0,8.75 C0,6.33462334 0.854483643,4.27246948 2.56347656,2.56347656 C4.27246948,0.854483643 6.33462334,0 8.75,0 C10.7248363,0 12.5021622,0.607632812 14.0820312,1.82291667 C15.251742,1.5798599 16.3910535,1.45833333 17.5,1.45833333 C19.6723199,1.45833333 21.7496646,1.8798786 23.7320964,2.72298177 C25.7145281,3.56608494 27.4234954,4.70539647 28.8590495,6.14095052 C30.2946035,7.57650457 31.4339151,9.28547186 32.2770182,11.2679036 C33.1201214,13.2503354 33.5416667,15.3276801 33.5416667,17.5 C33.5416667,18.6089465 33.4201401,19.748258 33.1770833,20.9179687 C34.3923672,22.4978378 35,24.2751637 35,26.25 Z" fill="#00AFF0"/><path d="M26.7285156,21.3053385 C26.7285156,20.5457861 26.5804051,19.8508061 26.2841797,19.2203776 C25.9879542,18.5899491 25.6195769,18.0696635 25.1790365,17.6595052 C24.7384961,17.2493469 24.1840311,16.8771718 23.515625,16.5429688 C22.8472189,16.2087657 22.2205975,15.9505217 21.6357422,15.7682292 C21.0508868,15.5859366 20.3862884,15.4112422 19.6419271,15.2441406 L17.2721354,14.6972656 C16.816404,14.5909283 16.4822059,14.5111765 16.2695313,14.4580078 C16.0568566,14.4048391 15.7910172,14.3174919 15.4720052,14.1959635 C15.1529932,14.0744352 14.9251309,13.9529086 14.7884115,13.8313802 C14.651692,13.7098518 14.5263678,13.5503482 14.4124349,13.3528646 C14.298502,13.155381 14.2415365,12.9275187 14.2415365,12.6692708 C14.2415365,11.4995601 15.3352755,10.9147135 17.5227865,10.9147135 C18.1760015,10.9147135 18.7608481,11.0058585 19.2773438,11.188151 C19.7938394,11.3704436 20.2039915,11.5869128 20.5078125,11.8375651 C20.8116335,12.0882174 21.100259,12.3426636 21.3736979,12.6009115 C21.6471368,12.8591593 21.9509532,13.0794262 22.2851563,13.2617188 C22.6193593,13.4440113 22.983939,13.5351563 23.3789063,13.5351563 C24.0928855,13.5351563 24.666339,13.2921031 25.0992839,12.8059896 C25.5322287,12.319876 25.7486979,11.7350295 25.7486979,11.0514323 C25.7486979,10.2159246 25.3233549,9.46018133 24.4726563,8.78417969 C23.6219576,8.10817804 22.5434093,7.59548786 21.2369792,7.24609375 C19.930549,6.89669964 18.5481844,6.72200521 17.0898438,6.72200521 C16.0568525,6.72200521 15.0542583,6.83973407 14.0820313,7.07519531 C13.1098042,7.31065656 12.2021527,7.66764084 11.3590495,8.14615885 C10.5159463,8.62467687 9.8399548,9.28547756 9.33105469,10.1285807 C8.82215457,10.9716839 8.56770833,11.9476941 8.56770833,13.0566406 C8.56770833,13.9832946 8.71202113,14.7922057 9.00065104,15.4833984 C9.28928096,16.1745911 9.71462393,16.7480446 10.2766927,17.203776 C10.8387615,17.6595075 11.4463943,18.0278849 12.0996094,18.3089193 C12.7528244,18.5899537 13.5351517,18.8368045 14.4466146,19.0494792 L17.7734375,19.8697917 C19.1406318,20.2039947 19.9913178,20.4774295 20.3255208,20.6901042 C20.8116344,20.9939251 21.0546875,21.4496497 21.0546875,22.0572917 C21.0546875,22.6497425 20.7508711,23.1396465 20.1432292,23.5270182 C19.5355872,23.91439 18.7380692,24.1080729 17.750651,24.1080729 C16.9759076,24.1080729 16.2809276,23.9865464 15.6656901,23.7434896 C15.0504527,23.5004328 14.556751,23.2080095 14.1845703,22.8662109 C13.8123896,22.5244124 13.4667985,22.1826189 13.1477865,21.8408203 C12.8287744,21.4990217 12.4793856,21.2065984 12.0996094,20.9635417 C11.7198332,20.7204849 11.309681,20.5989583 10.8691406,20.5989583 C10.1095882,20.5989583 9.53613475,20.8268206 9.14876302,21.2825521 C8.76139129,21.7382835 8.56770833,22.3079393 8.56770833,22.9915365 C8.56770833,24.3891129 9.49434837,25.58539 11.3476563,26.5804036 C13.2009641,27.5754173 15.4112285,28.0729167 17.9785156,28.0729167 C19.0874621,28.0729167 20.1508196,27.9324016 21.1686198,27.6513672 C22.18642,27.3703328 23.1168578,26.9639784 23.9599609,26.4322917 C24.8030641,25.900605 25.4752579,25.1904341 25.9765625,24.3017578 C26.4778671,23.4130815 26.7285156,22.4142851 26.7285156,21.3053385 Z" fill="#FFF"/>
  </g>
</svg>
